{
	"id": "21226dfc-5220-4747-bf0e-6c45abc9a1a3",
	"name": "template - local",
	"values": [
		{
			"key": "host",
			"value": "https://api.todoist.com/rest",
			"enabled": true
		},
		{
			"key": "version",
			"value": "v1",
			"enabled": true
		},
		{
			"key": "token",
			"value": "",
			"enabled": true
		}
	],
	"_postman_variable_scope": "environment",
	"_postman_exported_at": "2021-06-15T16:36:12.225Z",
	"_postman_exported_using": "Postman/7.36.5"
}